…
#create a table summarizing payments by month
payment_summary_df = payment_schedule_df %>% 
    group_by(date) %>% 
    summarise(total_payment = sum(monthly))

#     The result is a table that contains retirement payments from the PSPP,
## starting from 2052-03-01 (retirement date at 55) to 2082-03-01 (age 85): 
payment_summary_df 
```

    ## # A tibble: 361 × 2
    ##    date                total_payment
    ##    <dttm>                      <dbl>
    ##  1 2052-03-01 00:00:00         2233.
    ##  2 2052-04-01 00:00:00         2233.
    ##  3 2052-05-01 00:00:00         2233.
    ##  4 2052-06-01 00:00:00         2233.
    ##  5 2052-07-01 00:00:00         2233.
    ##  6 2052-08-01 00:00:00         2233.
    ##  7 2052-09-01 00:00:00         2233.
    ##  8 2052-10-01 00:00:00         2233.
    ##  9 2052-11-01 00:00:00         2233.
    ## 10 2052-12-01 00:00:00         2233.
    ## # ℹ 351 more rows
…
